\relax 
\catcode`:\active
\catcode`;\active
\catcode`!\active
\catcode`?\active
\select@language{french}
\@writefile{toc}{\select@language{french}}
\@writefile{lof}{\select@language{french}}
\@writefile{lot}{\select@language{french}}
\@writefile{toc}{\contentsline {chapter}{\numberline {1}Journal de travail}{2}}
\@writefile{lof}{\addvspace {10\p@ }}
\@writefile{lot}{\addvspace {10\p@ }}
\citation{stanford_tuto_iphone}
\citation{storyboard_tuto_iphone}
\citation{*}
\bibstyle{apalike-fr}
\bibdata{references}
\bibcite{stanford_tuto_iphone}{Stanford, 2012}
\bibcite{storyboard_tuto_iphone}{Wenderlich, 2012}
\bibcite{lulu_ror}{\IeC {\'E}ric Lefran\IeC {\c c}ois, 2012}
